 [
    {
        "collectionName": "collection1",
        "groups": [
            {"name": "GIS"}
        ]
    },
    {
        "collectionName": "collection2",
        "groups":[
            {"name": "GISPZOS"}
        ],
        "groupCollections": [
            {"name": "collection1"}
        ]
    },
    {
        "collectionName": "collection3",
        "groups": [
            {"name": "GISPDB2"}
        ],
        "groupCollections": [
            {"name": "collection1"}
        ]
    },
    {
        "collectionName": "collection4",
        "groups": [
            {"name": "GICAP"}
        ],
        "groupCollections": [
            {"name": "collection1"},
            {"name": "collection2"}
        ]
    }
]